------------------------------------------------------------------------------------------------------------------------

[2021-01-11 15:27:48 #1 store] 
Database 'C:\Users\hecto\Escritorio\Universidad\ProgramasBDCN\ProyectoObjectDB\object.odb' is opened by 13284@LAPTOP-R72O533J

[2021-01-11 15:27:48 #2 store] 
Configuration path: ?

[2021-01-11 15:27:48 #3 type] 
Type mx.edu.utez.model.Alumno is not enhanced.

------------------------------------------------------------------------------------------------------------------------

[2021-01-11 15:48:47 #1 store] 
Database 'C:\Users\hecto\Escritorio\Universidad\ProgramasBDCN\ProyectoObjectDB\object.odb' is opened by 14252@LAPTOP-R72O533J

[2021-01-11 15:48:47 #2 store] 
Configuration path: ?

[2021-01-11 15:48:47 #3 type] 
Type mx.edu.utez.model.Alumno is not enhanced.

------------------------------------------------------------------------------------------------------------------------

[2021-01-11 22:41:01 #1 store] 
Database 'C:\Users\hecto\Escritorio\Universidad\ProgramasBDCN\ProyectoObjectDB\object.odb' is opened by 14184@LAPTOP-R72O533J

[2021-01-11 22:41:01 #2 store] 
Configuration path: ?

------------------------------------------------------------------------------------------------------------------------

[2021-01-11 22:41:27 #1 store] 
Database 'C:\Users\hecto\Escritorio\Universidad\ProgramasBDCN\ProyectoObjectDB\object.odb' has been recovered (tr. 1-2)

[2021-01-11 22:41:27 #2 store] 
Database 'C:\Users\hecto\Escritorio\Universidad\ProgramasBDCN\ProyectoObjectDB\object.odb' is opened by 14324@LAPTOP-R72O533J

[2021-01-11 22:41:27 #3 store] 
Configuration path: ?

[2021-01-11 22:41:27 #4 type] 
Type mx.edu.utez.model.Alumno is not enhanced.

------------------------------------------------------------------------------------------------------------------------

[2021-01-11 23:06:08 #1 store] 
Database 'C:\Users\hecto\Escritorio\Universidad\ProgramasBDCN\ProyectoObjectDB\object.odb' is opened by 3932@LAPTOP-R72O533J

[2021-01-11 23:06:08 #2 store] 
Configuration path: ?

[2021-01-11 23:06:08 #3 type] 
Type mx.edu.utez.model.Alumno is not enhanced.

------------------------------------------------------------------------------------------------------------------------

[2021-01-11 23:11:38 #1 store] 
Database 'C:\Users\hecto\Escritorio\Universidad\ProgramasBDCN\ProyectoObjectDB\object.odb' is opened by 6916@LAPTOP-R72O533J

[2021-01-11 23:11:38 #2 store] 
Configuration path: ?

[2021-01-11 23:11:38 #3 type] 
Type mx.edu.utez.model.Alumno is not enhanced.

------------------------------------------------------------------------------------------------------------------------

[2021-01-11 23:11:59 #1 store] 
Database 'C:\Users\hecto\Escritorio\Universidad\ProgramasBDCN\ProyectoObjectDB\object.odb' is opened by 5612@LAPTOP-R72O533J

[2021-01-11 23:11:59 #2 store] 
Configuration path: ?

[2021-01-11 23:11:59 #3 type] 
Type mx.edu.utez.model.Alumno is not enhanced.

------------------------------------------------------------------------------------------------------------------------

[2021-01-11 23:12:33 #1 store] 
Database 'C:\Users\hecto\Escritorio\Universidad\ProgramasBDCN\ProyectoObjectDB\object.odb' is opened by 13604@LAPTOP-R72O533J

[2021-01-11 23:12:33 #2 store] 
Configuration path: ?

[2021-01-11 23:12:33 #3 type] 
Type mx.edu.utez.model.Alumno is not enhanced.

------------------------------------------------------------------------------------------------------------------------

[2021-01-11 23:12:43 #1 store] 
Database 'C:\Users\hecto\Escritorio\Universidad\ProgramasBDCN\ProyectoObjectDB\object.odb' is opened by 2644@LAPTOP-R72O533J

[2021-01-11 23:12:43 #2 store] 
Configuration path: ?

[2021-01-11 23:12:43 #3 type] 
Type mx.edu.utez.model.Alumno is not enhanced.

------------------------------------------------------------------------------------------------------------------------

[2021-01-11 23:20:28 #1 store] 
Database 'C:\Users\hecto\Escritorio\Universidad\ProgramasBDCN\ProyectoObjectDB\object.odb' is opened by 3632@LAPTOP-R72O533J

[2021-01-11 23:20:28 #2 store] 
Configuration path: ?

[2021-01-11 23:20:28 #3 type] 
Type mx.edu.utez.model.Alumno is not enhanced.

------------------------------------------------------------------------------------------------------------------------

[2021-01-11 23:20:56 #1 store] 
Database 'C:\Users\hecto\Escritorio\Universidad\ProgramasBDCN\ProyectoObjectDB\object.odb' is opened by 12816@LAPTOP-R72O533J

[2021-01-11 23:20:56 #2 store] 
Configuration path: ?

[2021-01-11 23:20:56 #3 type] 
Type mx.edu.utez.model.Alumno is not enhanced.

------------------------------------------------------------------------------------------------------------------------

[2021-01-11 23:23:46 #1 store] 
Database 'C:\Users\hecto\Escritorio\Universidad\ProgramasBDCN\ProyectoObjectDB\object.odb' is opened by 5508@LAPTOP-R72O533J

[2021-01-11 23:23:46 #2 store] 
Configuration path: ?

[2021-01-11 23:23:46 #3 type] 
Type mx.edu.utez.model.Alumno is not enhanced.

------------------------------------------------------------------------------------------------------------------------

[2021-01-11 23:23:55 #1 store] 
Database 'C:\Users\hecto\Escritorio\Universidad\ProgramasBDCN\ProyectoObjectDB\object.odb' is opened by 7884@LAPTOP-R72O533J

[2021-01-11 23:23:55 #2 store] 
Configuration path: ?

[2021-01-11 23:23:55 #3 type] 
Type mx.edu.utez.model.Alumno is not enhanced.

